{
  "project_info": {
    "project_number": "621462118502",
    "firebase_url": "https://my-project-1536034588273.firebaseio.com",
    "project_id": "my-project-1536034588273",
    "storage_bucket": "my-project-1536034588273.appspot.com"
  },
  "client": [
    {
      "client_info": {
        "mobilesdk_app_id": "1:621462118502:android:008091b5e2302620f50da7",
        "android_client_info": {
          "package_name": "com.fernt0411.chatmystery"
        }
      },
      "oauth_client": [
        {
          "client_id": "621462118502-g7m13noam39aql6epv144u82ml8c3so8.apps.googleusercontent.com",
          "client_type": 3
        }
      ],
      "api_key": [
        {
          "current_key": "AIzaSyBP-Lc76h9bR3_6JB0x1PGstwQXj80HCXk"
        }
      ],
      "services": {
        "appinvite_service": {
          "other_platform_oauth_client": [
            {
              "client_id": "621462118502-g7m13noam39aql6epv144u82ml8c3so8.apps.googleusercontent.com",
              "client_type": 3
            }
          ]
        }
      }
    }
  ],
  "configuration_version": "1"
}